Segunda Tarea
…
Carga de datos

read_csv("C:/Users/marin/Downloads/TAREA2_Procesamiento/coffee-quality.csv")

Rows: 206 Columns: 40
── Column specification ────────────────────────────────────────────────────────
Delimiter: ","
chr (21): Country_of_Origin, Farm_Name, Lot_Number, Mill, ICO_Number, Compan...
dbl (19): ID, Altitude, Number_of_Bags, Aroma, Flavor, Aftertaste, Acidity, ...

ℹ Use `spec()` to retrieve the full column specification for this data.
ℹ Specify the column types or set `show_col_types = FALSE` to quiet this message.

# A tibble: 206 × 40
      ID Country_of_Origin Farm_Name         Lot_Number Mill  ICO_Number Company
   <dbl> <chr>             <chr>             <chr>      <chr> <chr>      <chr>  
 1     1 Taiwan            Royal Bean Geish… The 2022 … Roya… <NA>       Taiwan…
 2    28 Taiwan            他扶芽有機農園    The 2022 … 他扶… <NA>       Taiwan…
 3    58 Taiwan            嵐雲綠海咖啡      屏東縣瑪…  乾燥… <NA>       茂泰生…
 4    79 Indonesia         Lintong Nihuta/D… CQU2022018 Lint… <NA>       Coffee…
 5    81 Madagascar        Mandroso          1          On t… <NA>       Vao Va…
 6   119 Taiwan            香香久溢咖啡莊園  The 2022 … 香香… <NA>       Taiwan…
 7   126 Taiwan            東泓咖啡莊園      The 2022 … 東泓… <NA>       Taiwan…
 8   135 Taiwan            迎曦山丘          A20-North… 迎曦… <NA>       Taiwu …
 9   140 Taiwan            樹橋窩莊園        A17-North… 樹橋… <NA>       Taiwu …
10   154 Taiwan            掬香園            A22-North… 掬香… <NA>       Taiwu …
# ℹ 196 more rows
# ℹ 33 more variables: Altitude <dbl>, Region <chr>, Producer <chr>,
#   Number_of_Bags <dbl>, Bag_Weight <chr>, In_Country_Partner <chr>,
#   Harvest_Year <chr>, Grading_Date <chr>, Owner <chr>, Variety <chr>,
#   Status <chr>, Processing_Method <chr>, Aroma <dbl>, Flavor <dbl>,
#   Aftertaste <dbl>, Acidity <dbl>, Body <dbl>, Balance <dbl>,
#   Uniformity <dbl>, Clean_Cup <dbl>, Sweetness <dbl>, Overall <dbl>, …
…
